id;exam_name;exam_date;exam_note;coefficient;exam_time
1;Unit Ball Dynamic;2021-04-11T09:35:41;Internal neural;1759;51689
2;Borders Plastic Soft;2021-04-11T02:50:47;deposit pink mobile;70960;44362
3;Auto;2021-04-10T18:32:20;Agent reboot;69586;56988
4;Cliff capacitor;2021-04-11T15:28:25;Producer;53643;55958
5;Account yellow;2021-04-11T01:34:14;bus intranet;93280;55562
6;Pound;2021-04-11T14:04:42;Rubber Corner;20033;15699
7;communities plug-and-play;2021-04-11T03:56:42;payment Granite Generic;97083;91342
8;Directives Squares;2021-04-11T06:00:03;end-to-end Pants hack;55814;89817
9;Awesome approach;2021-04-10T22:02:08;hacking;21032;56028
10;multimedia evolve;2021-04-11T08:54:02;payment;89917;9258
