{
  "name": "Students",
  "fields": [
    {
      "fieldName": "stuCode",
      "fieldType": "String",
      "javadoc": "fieldName"
    },
    {
      "fieldName": "stuName",
      "fieldType": "String"
    },
    {
      "fieldName": "stuDob",
      "fieldType": "Instant"
    },
    {
      "fieldName": "stuEmail",
      "fieldType": "String"
    },
    {
      "fieldName": "stuPhone",
      "fieldType": "String"
    },
    {
      "fieldName": "stuAddress",
      "fieldType": "String"
    },
    {
      "fieldName": "stuGender",
      "fieldType": "String"
    },
    {
      "fieldName": "stuStatus",
      "fieldType": "String"
    },
    {
      "fieldName": "stuDate",
      "fieldType": "Instant"
    }
  ],
  "relationships": [
    {
      "relationshipType": "one-to-many",
      "otherEntityName": "subjectResults",
      "otherEntityRelationshipName": "student",
      "relationshipName": "subjectResults"
    }
  ],
  "javadoc": "The Students entity.\\n@author A true hipster",
  "entityTableName": "students",
  "dto": "no",
  "pagination": "infinite-scroll",
  "service": "serviceImpl",
  "jpaMetamodelFiltering": false,
  "fluentMethods": true,
  "readOnly": false,
  "embedded": false,
  "applications": "*",
  "changelogDate": "20210411163548"
}
